consumer_name,consumer_father_name,consumer_code,package_id,consumer_act_date,consumer_act_charge,consumer_act_collection,consumer_connection_id,collection_agent_id,debit,credit,site_id
Suresh Kumar Tiwari,Chandrika Prasad Tiwari,9559303559,38,25-Feb,1100,800,UPBHAR01801,30,400,400,43
Tilakram,Daroga,9005849603,25,25-Feb,2150,2900,UPBHAR01802,30,280,280,43
Dharmendra Kumar Gupta,Babulal Gupta,8953816330,21,18-Feb,1310,1620,UPBHAR01803,30,120,120,43
Manoj Kumar Gupta ,Gangaram Gupta ,9005158631,21,19-Feb,1000,600,UPBHAR05401,30,120,120,43
Balakram Gupta ,Mahadev Prasad,9198358903,21,25-Feb,1150,900,UPBHAR05501,30,120,120,43
Manoj Kasodhan,Chotelal Kasodhan,9559494083,21,19-Feb,1000,600,UPBHAR02304,30,120,120,43
Jagdish Prasad,Chotelal ,9792356493,21,18-Feb,1000,1000,UPBHAR02302,30,120,120,43
Ramdheeraj Saini,Jagram Saini,9532747672,21,18-Feb,1000,600,UPBHAR02301,30,120,120,43
Dhaneeram Gupta ,Mahadev Prasad Gupta,9559846782,21,18-Feb,1000,1000,UPBHAR02303,30,120,120,43
Rajesh Kumar Soni,Dwarika Prasad Soni,7800957283,21,18-Feb,1490,1580,UPBHAR01804,30,120,120,43
Nandni Shrivastva,Vimal Kumar Shrivastva,8127602051,21,19-Feb,1250,1500,UPBHAR01601,30,120,120,43
Hariram Gupta,Suryalal Gupta,9794577440,21,17-Feb,1190,980,UPBHAR01805,30,120,120,43
Kamesvar Nath Mishra,Goliram Mishra,9695766922,24,18-Feb,1750,2500,UPBHAR02002,30,240,240,43
Rakesh Shukla ,Ramgopal Shukla,9005003519,21,25-Feb,1250,1100,UPBHAR01001,30,120,120,43
Anand Kumar Gupta,Anokhilal Gupta,9795692337,24,18-Feb,2000,2600,UPBHAR02001,30,240,240,43
Akhilesh Kumar,Ramdas Tiwari,9451938430,21,25-Feb,1250,1100,UPBHAR02102,30,120,120,43
Vanshraj Gautam,Gurudayal Gautam,7754934080,21,25-Feb,1000,600,UPBHAR02103,30,120,120,43
Aarti Yadav,Lale Yadav,9695084134,21,25-Feb,1000,600,UPBHAR00101,30,120,120,43
Sanjay Kasodhan,Anokhilal Kasodhan,9628856903,38,18-Feb,1250,1100,UPBHAR02101,30,400,400,43
Shiv Kumar Yadav,Alakh Ram Yadav,7054713652,24,28-Feb,1120,840,UPBHAR01806,30,240,240,43
Subhash Tiwari,Diksha Ram Tiwari,9005931503,24,28-Feb,1600,2200,UPBHAR01201,30,240,240,43
Babbu Gupta,Radhika Prasad Gupta,9792038607,21,08-Mar,1030,660,UPBHAR01807,30,120,120,43
Satendra Kumar Yadav,Sanchit Kumar Yadav,7607293289,21,08-Mar,1060,720,UPBHAR01808,30,120,120,43
Dilip Kumar Gupta,Ganesh Kumar Gupta,8948448865,21,08-Mar,1000,600,UPBHAR05602,30,120,120,43