consumer_connection_id,debit,credit,activation,date,collection_agent_id
BHFAKT04107,0,0,0,,14
BHFAKT03808,1200,1200,0,07/03/15,14
BHFAKT04213,1500,1400,0,07/03/15,14
BHFAKT03810,150,0,0,,14
BHFAKT03811,1000,1000,0,16/03/15,14
BHFAKT04108,250,250,0,07/03/15,14
BHFAKT04012,200,200,0,07/03/15,14
BHFAKTTEMP01,0,0,0,,14
BHFAKT03811,1000,1000,0,07/03/15,14
BHFAKTTEMP02,0,0,0,,14
BHFAKTTEMP03,0,0,0,,14
BHFAKT03003,0,0,0,,14
BHFAKTTEMP04,850,850,0,07/03/15,14