consumer_connection_id,debit,credit,activation,date,collection_agent_id
BHFAKT04107,0,0,0,,14
BHFAKT03808,2500,2500,0,05/11/14,14
BHFAKT04213,1500,1500,0,05/11/14,14
BHFAKT03810,0,0,0,,14
BHFAKT03811,0,0,0,,14
BHFAKT04108,250,250,100,05/11/14,14
BHFAKT04012,200,200,0,15/11/14,14
BHFAKTTEMP01,0,0,0,,14
BHFAKT03811,500,500,0,05/11/14,14
BHFAKTTEMP02,0,0,0,,14
BHFAKTTEMP03,0,0,0,,14
BHFAKT03003,10000,10000,0,15/11/14,14
BHFAKTTEMP04,0,0,0,,14