consumer_connection_id,debit,credit,activation,date,collection_agent_id
BHFAKT04107,783,783,0,05/08/14,14
BHFAKT03808,3000,3000,0,05/08/14,14
BHFAKT04213,1500,1500,0,05/08/14,14
BHFAKT03810,700,700,0,16/08/14,14
BHFAKT03811,0,300,0,30/07/14,14
BHFAKT04108,250,250,100,02/08/14,14
BHFAKT04012,200,200,0,02/08/14,14
BHFAKTTEMP01,0,,0,,14
BHFAKT03811,500,500,0,02/08/14,14
BHFAKTTEMP02,0,0,0,,14
BHFAKTTEMP03,0,0,0,,14
BHFAKT03003,0,0,0,,14
BHFAKTTEMP04,0,0,0,,14