consumer_connection_id,debit,credit,activation,date,collection_agent_id
BHFAKT04013, 150 , 150 ,  -   ,02/11/14,14
BHFAKT03807, 150 , 150 , 100 ,14/11/14,14
BHFAKT02807, 150 , 150 , 50 ,05/11/14,14
BHFAKT04104, 150 , 150 ,  -   ,02/11/14,14
BHFAKT04103, 150 , 150 ,  -   ,02/11/14,14
BHFAKT00001, 150 , 150 ,  -   ,05/11/14,14
BHFAKT04005, 150 , 150 ,  -   ,02/11/14,14
BHFAKT00602, 150 , 150 ,  -   ,05/11/14,14
BHFAKT04503, 150 , 150 ,  -   ,02/11/14,14
BHFAKT04307, 150 , 150 ,  -   ,02/11/14,14
BHFAKT04009, 150 , 150 ,  -   ,02/11/14,14
BHFAKT02102, 150 ,  -   ,  -   ,02/11/14,14
BHFAKT01301,  -   ,  -   ,  -   ,13/12/14,14
BHFAKT04702, 150 , 150 , 100 ,18/11/14,14
BHFAKT04210, 150 , 150 ,  -   ,05/11/14,14
BHFAKT03704, 150 , 150 ,  -   ,05/11/14,14
BHFAKT03805, 150 , 150 , 100 ,14/11/14,14
BHFAKT01602, 150 , 150 ,  -   ,01/11/14,14
BHFAKT04208, 400 , 400 ,  -   ,18/11/14,14
BHFAKT03602,  -   ,  -   ,  -   ,,14
BHFAKT03802, 150 , 150 , 100 ,02/11/14,14
BHFAKT04002, 150 , 150 ,  -   ,02/11/14,14
BHFAKT02401, 150 , 150 , 50 ,05/11/14,14
BHFAKT03501, 450 , 450 ,  -   ,02/11/14,14
BHFAKT01401, 150 , 150 ,  -   ,14/11/14,14
BHFAKT03302, 150 , 150 ,  -   ,14/11/14,14
BHFAKT04304,  -   ,  -   ,  -   ,,14
BHFAKT04302, 150 , 150 ,  -   ,14/11/14,14
BHFAKT03904, 150 , 150 , 100 ,02/11/14,14
BHFAKT04011, 150 , 150 ,  -   ,05/11/14,14
BHFAKT04206, 150 , 150 ,  -   ,05/11/14,14
BHFAKT03002, 150 , 150 , 50 ,01/11/14,14
BHFAKT02804, 150 , 150 , 50 ,04/11/14,14
BHFAKT04007, 150 , 150 ,  -   ,01/11/14,14
BHFAKT03601, 150 , 150 , 100 ,14/11/14,14
BHFAKT04601, 150 ,  -   ,  -   ,14/11/14,14
BHFAKT01101,  -   ,  -   ,  -   ,,14
BHFAKT03202, 150 , 150 ,  -   ,05/11/14,14
BHFAKT00601, 150 , 150 ,  -   ,02/11/14,14
BHFAKT03303, 150 , 150 , 70 ,05/11/14,14
BHFAKT03804, 150 , 150 , 100 ,01/11/14,14
BHFAKT04205, 150 , 150 ,  -   ,01/11/14,14
BHFAKT02601, 150 , 150 , 50 ,05/11/14,14
BHFAKT01802,  -   ,  -   ,  -   ,,14
BHFAKT04203, 150 , 150 , 90 ,01/11/14,14
BHFAKT04212, 150 , 150 ,  -   ,11/11/14,14
BHFAKT04201, 150 , 150 , 50 ,14/11/14,14
BHFAKT01302,  -   ,  -   ,  -   ,,14
BHFAKT02803, 150 , 150 , 50 ,05/11/14,14
BHFAKT03705, 150 , 150 ,  -   ,14/11/14,14
BHFAKT02805, 150 , 150 ,  -   ,14/11/14,14
BHFAKT04004,  -   ,  -   ,  -   ,,14
BHFAKT01403, 150 , 150 ,  -   ,05/11/14,14
BHFAKT04003, 150 , 150 ,  -   ,01/11/14,14
BHFAKT03701, 150 , 150 , 100 ,18/11/14,14
BHFAKT01203,  -   ,  -   ,  -   ,,14
BHFAKT04202, 150 , 150 , 100 ,02/11/14,14
BHFAKT02806, 150 , 150 , 50 ,01/11/14,14
BHFAKT04303, 150 , 150 ,  -   ,01/11/14,14
BHFAKT04309, 150 , 150 ,  -   ,11/11/14,14
BHFAKT04101, 150 , 150 ,  -   ,14/11/14,14
BHFAKT02602, 150 , 150 , 50 ,02/11/14,14
BHFAKT04501, 150 , 150 ,  -   ,14/11/14,14
BHFAKT02501,  -   ,  -   ,  -   ,,14
BHFAKT02402, 150 , 150 , 50 ,14/11/14,14
BHFAKT02801, 150 , 150 , 50 ,05/11/14,14
BHFAKT04504,  -   ,  -   ,  -   ,,14
BHFAKT04211, 150 , 150 ,  -   ,05/11/14,14
BHFAKT00502, 150 , 150 , 100 ,05/11/14,14
BHFAKT04701, 150 , 150 , 50 ,14/11/14,14
BHFAKT00501, 150 , 150 , 100 ,05/11/14,14
BHFAKT00401, 150 , 150 ,  -   ,05/11/14,14
BHFAKT03603, 150 , 150 ,  -   ,18/11/14,14
BHFAKT01601, 150 , 150 , 50 ,18/11/14,14
BHFAKT04105, 150 , 150 ,  -   ,05/11/14,14
BHFAKT03803, 150 , 150 ,  -   ,18/11/14,14
BHFAKT04507, 150 , 150 ,  -   ,05/11/14,14
BHFAKT03301, 150 , 150 ,  -   ,18/11/14,14
BHFAKT03901, 150 ,  -   ,  -   ,02/11/14,14
BHFAKT03702, 150 , 150 , 100 ,02/11/14,14
BHFAKT04508, 150 , 150 ,  -   ,18/11/14,14
BHFAKT04102, 150 , 150 ,  -   ,02/11/14,14
BHFAKT04209, 150 , 150 ,  -   ,14/11/14,14
BHFAKT00702, 150 , 150 , 50 ,14/11/14,14
BHFAKT03903, 150 , 150 , 100 ,18/11/14,14
BHFAKT01402, 150 , 150 ,  -   ,05/11/14,14
BHFAKT01405,  -   ,  -   ,  -   ,,14
BHFAKT04301, 150 , 150 ,  -   ,18/11/14,14
BHFAKT04008, 150 , 150 ,  -   ,14/11/14,14
BHFAKT04509, 150 , 150 ,  -   ,18/11/14,14
BHFAKT04305, 150 , 150 ,  -   ,18/11/14,14
BHFAKT04006, 150 , 150 ,  -   ,14/11/14,14
BHFAKT03703, 150 , 150 ,  -   ,02/11/14,14
BHFAKT04204, 150 , 150 ,  -   ,14/11/14,14
BHFAKT04308, 150 , 150 ,  -   ,02/11/14,14
BHFAKT03203, 150 , 150 ,  -   ,02/11/14,14
BHFAKT01304,  -   ,  -   ,  -   ,,14
BHFAKT04602, 150 , 150 ,  -   ,18/11/14,14
BHFAKT01303, 150 , 150 ,  -   ,18/11/14,14
BHFAKT04010, 150 , 150 ,  -   ,02/11/14,14
BHFAKT03809, 150 , 150 ,  -   ,14/11/14,14
BHFAKT02403,  -   ,  -   ,  -   ,,14
BHFAKT03902, 150 , 150 , 100 ,11/11/14,14
BHFAKT02802, 150 , 150 , 50 ,01/11/14,14
BHFAKT04207, 150 , 150 ,  -   ,05/11/14,14
BHFAKT04306, 150 , 150 ,  -   ,02/11/14,14
BHFAKT04505, 150 , 150 ,  -   ,02/11/14,14
BHFAKT02301, 150 , 150 , 50 ,02/11/14,14
BHFAKT04502, 150 , 150 ,  -   ,18/11/14,14
BHFAKT03806, 150 , 150 , 100 ,14/11/14,14
BHFAKT00503, 150 , 150 , 100 ,14/11/14,14
BHFAKT03304, 150 , 150 , 100 ,01/11/14,14
BHFAKT00701, 150 ,  -   ,  -   ,13/12/14,14
BHFAKT01102,  -   ,  -   ,  -   ,,14
BHFAKT04001, 150 , 150 ,  -   ,02/11/14,14
BHFAKT03801, 150 , 150 ,  -   ,02/11/14,14
BHFAKT03001, 150 , 150 , 50 ,01/11/14,14
BHFAKT04506, 150 , 150 , 100 ,01/11/14,14
BHFAKT01201,  -   ,  -   ,  -   ,,14
BHFAKT01801,  -   ,  -   ,  -   ,,14
BHFAKT01104,  -   ,  -   ,  -   ,,14
BHFAKT03905,,,  -   ,,14
BHFAKT01103,,,,,14
BHFAKT01305,,,,,14
BHFAKT00704,,,,,14
BHFAKT00703,,,,,14
BHFAKTTEM01,  -   ,  -   ,  -   ,,14
BHFAKTTEM02,  -   ,  -   ,  -   ,,14
BHFAKTTEM03,  -   ,  -   ,  -   ,,14
BHFAKTTEM05,  -   ,  -   ,  -   ,,14
BHFAKTTEM06, 35 , 35 ,  -   ,01/11/14,14
BHFAKTTEM07,  -   ,  -   ,  -   ,,14
BHFAKTTEM08,  -   ,  -   ,  -   ,,14
BHFAKTTEM09,  -   ,  -   ,  -   ,,14
BHFAKTTEM10,  -   ,  -   ,  -   ,,14
BHFAKTTEM11,  -   ,  -   ,  -   ,,14
BHFAKTTEM12,  -   ,  -   ,  -   ,,14
,,,,,
,,,,,
,,,,,
,,,,,
,,,,,
,,,,,
,,,,,
,,,,,
,,,,,